mark@ubuntu:~/cellx-oe-core/layers/meta-cellx/tools$ python sub_mach_ack.py
creating new instance
connecting to broker
Subscribing to topic tbd/machine/ack
message received  { "message_type": "ack", "transport_version": "1.0", "command_id": 1234, "session_id": "83386d73-21d1-49bd-9b73-3ecdfbc2b819", "machine_id": "b3872169-a77f-48a1-abd9-f4073b319ab9", "status": "ok", "status_code": 200, "timestamp": 1646508590, "payload": { "requesting_client_guid": "83386d73-21d1-49bd-9b73-3ecdfbc2b819" } }
message topic= tbd/machine/ack
message qos= 0
message retain flag= 0
message received  { "message_type": "ack", "transport_version": "1.0", "command_id": 1234, "session_id": "83386d73-21d1-49bd-9b73-3ecdfbc2b819", "machine_id": "b3872169-a77f-48a1-abd9-f4073b319ab9", "status": "ok", "status_code": 200, "timestamp": 1646508591, "payload": { } }
message topic= tbd/machine/ack
message qos= 0
message retain flag= 0
message received  { "message_type": "ack", "transport_version": "1.0", "command_id": 1234, "session_id": "83386d73-21d1-49bd-9b73-3ecdfbc2b819", "machine_id": "b3872169-a77f-48a1-abd9-f4073b319ab9", "status": "ok", "status_code": 200, "timestamp": 1646508592, "payload": { "xx_nm": 2030 } }
message topic= tbd/machine/ack
message qos= 0
message retain flag= 0
message received  { "message_type": "ack", "transport_version": "1.0", "command_id": 1234, "session_id": "83386d73-21d1-49bd-9b73-3ecdfbc2b819", "machine_id": "b3872169-a77f-48a1-abd9-f4073b319ab9", "status": "ok", "status_code": 200, "timestamp": 1646508593, "payload": { "x_nm": 1000, "y_nm": 2000 } }
message topic= tbd/machine/ack
message qos= 0
message retain flag= 0
message received  { "message_type": "ack", "transport_version": "1.0", "command_id": 1234, "session_id": "83386d73-21d1-49bd-9b73-3ecdfbc2b819", "machine_id": "b3872169-a77f-48a1-abd9-f4073b319ab9", "status": "ok", "status_code": 200, "timestamp": 1646508594, "payload": { } }
message topic= tbd/machine/ack
message qos= 0
message retain flag= 0
message received  { "message_type": "ack", "transport_version": "1.0", "command_id": 1234, "session_id": "83386d73-21d1-49bd-9b73-3ecdfbc2b819", "machine_id": "b3872169-a77f-48a1-abd9-f4073b319ab9", "status": "ok", "status_code": 200, "timestamp": 1646508595, "payload": { "y_nm": 2000 } }
message topic= tbd/machine/ack
message qos= 0
message retain flag= 0
message received  { "message_type": "ack", "transport_version": "1.0", "command_id": 1234, "session_id": "83386d73-21d1-49bd-9b73-3ecdfbc2b819", "machine_id": "b3872169-a77f-48a1-abd9-f4073b319ab9", "status": "ok", "status_code": 200, "timestamp": 1646508596, "payload": { "zz_nm": 54321 } }
message topic= tbd/machine/ack
message qos= 0
message retain flag= 0
message received  { "message_type": "ack", "transport_version": "1.0", "command_id": 1234, "session_id": "83386d73-21d1-49bd-9b73-3ecdfbc2b819", "machine_id": "b3872169-a77f-48a1-abd9-f4073b319ab9", "status": "ok", "status_code": 200, "timestamp": 1646508597, "payload": { "zz_offset_nm": 33 } }
message topic= tbd/machine/ack
message qos= 0
message retain flag= 0
message received  { "message_type": "ack", "transport_version": "1.0", "command_id": 1234, "session_id": "83386d73-21d1-49bd-9b73-3ecdfbc2b819", "machine_id": "b3872169-a77f-48a1-abd9-f4073b319ab9", "status": "ok", "status_code": 200, "timestamp": 1646508598, "payload": { } }
message topic= tbd/machine/ack
message qos= 0
message retain flag= 0
message received  { "message_type": "ack", "transport_version": "1.0", "command_id": 1234, "session_id": "83386d73-21d1-49bd-9b73-3ecdfbc2b819", "machine_id": "b3872169-a77f-48a1-abd9-f4073b319ab9", "status": "ok", "status_code": 200, "timestamp": 1646508599, "payload": { "zzz_nm": 333 } }
message topic= tbd/machine/ack
message qos= 0
message retain flag= 0
message received  { "message_type": "ack", "transport_version": "1.0", "command_id": 1234, "session_id": "83386d73-21d1-49bd-9b73-3ecdfbc2b819", "machine_id": "b3872169-a77f-48a1-abd9-f4073b319ab9", "status": "ok", "status_code": 200, "timestamp": 1646508600, "payload": { "zzz_offset_nm": -333 } }
message topic= tbd/machine/ack
message qos= 0
message retain flag= 0
message received  { "message_type": "ack", "transport_version": "1.0", "command_id": 1234, "session_id": "83386d73-21d1-49bd-9b73-3ecdfbc2b819", "machine_id": "b3872169-a77f-48a1-abd9-f4073b319ab9", "status": "ok", "status_code": 200, "timestamp": 1646508601, "payload": { } }
message topic= tbd/machine/ack
message qos= 0
message retain flag= 0
message received  { "message_type": "ack", "transport_version": "1.0", "command_id": 1234, "session_id": "83386d73-21d1-49bd-9b73-3ecdfbc2b819", "machine_id": "b3872169-a77f-48a1-abd9-f4073b319ab9", "status": "ok", "status_code": 200, "timestamp": 1646508602, "payload": { } }
message topic= tbd/machine/ack
message qos= 0
message retain flag= 0
message received  { "message_type": "ack", "transport_version": "1.0", "command_id": 1234, "session_id": "83386d73-21d1-49bd-9b73-3ecdfbc2b819", "machine_id": "b3872169-a77f-48a1-abd9-f4073b319ab9", "status": "ok", "status_code": 200, "timestamp": 1646508603, "payload": { } }
message topic= tbd/machine/ack
message qos= 0
message retain flag= 0
message received  { "message_type": "ack", "transport_version": "1.0", "command_id": 1234, "session_id": "83386d73-21d1-49bd-9b73-3ecdfbc2b819", "machine_id": "b3872169-a77f-48a1-abd9-f4073b319ab9", "status": "ok", "status_code": 200, "timestamp": 1646508604, "payload": { } }
message topic= tbd/machine/ack
message qos= 0
message retain flag= 0
message received  { "message_type": "ack", "transport_version": "1.0", "command_id": 1234, "session_id": "83386d73-21d1-49bd-9b73-3ecdfbc2b819", "machine_id": "b3872169-a77f-48a1-abd9-f4073b319ab9", "status": "ok", "status_code": 200, "timestamp": 1646508605, "payload": { } }
message topic= tbd/machine/ack
message qos= 0
message retain flag= 0
message received  { "message_type": "ack", "transport_version": "1.0", "command_id": 1234, "session_id": "83386d73-21d1-49bd-9b73-3ecdfbc2b819", "machine_id": "b3872169-a77f-48a1-abd9-f4073b319ab9", "status": "ok", "status_code": 200, "timestamp": 1646508606, "payload": { } }
message topic= tbd/machine/ack
message qos= 0
message retain flag= 0
message received  { "message_type": "ack", "transport_version": "1.0", "command_id": 1234, "session_id": "83386d73-21d1-49bd-9b73-3ecdfbc2b819", "machine_id": "b3872169-a77f-48a1-abd9-f4073b319ab9", "status": "ok", "status_code": 200, "timestamp": 1646508607, "payload": { "flow_rate_ul_per_s": 0.043, "time_s": 8.40 } }
message topic= tbd/machine/ack
message qos= 0
message retain flag= 0
message received  { "message_type": "ack", "transport_version": "1.0", "command_id": 1234, "session_id": "83386d73-21d1-49bd-9b73-3ecdfbc2b819", "machine_id": "b3872169-a77f-48a1-abd9-f4073b319ab9", "status": "ok", "status_code": 200, "timestamp": 1646508608, "payload": { "flow_rate_ul_per_s": 0.043, "volume_ul": 11.0 } }
message topic= tbd/machine/ack
message qos= 0
message retain flag= 0
message received  { "message_type": "ack", "transport_version": "1.0", "command_id": 1234, "session_id": "83386d73-21d1-49bd-9b73-3ecdfbc2b819", "machine_id": "b3872169-a77f-48a1-abd9-f4073b319ab9", "status": "ok", "status_code": 200, "timestamp": 1646508609, "payload": { "volume_ul": 21.0, "time_s": 13.13 } }
message topic= tbd/machine/ack
message qos= 0
message retain flag= 0
message received  { "message_type": "ack", "transport_version": "1.0", "command_id": 1234, "session_id": "83386d73-21d1-49bd-9b73-3ecdfbc2b819", "machine_id": "b3872169-a77f-48a1-abd9-f4073b319ab9", "status": "ok", "status_code": 200, "timestamp": 1646508610, "payload": { "flow_rate_ul_per_s": 5.05, "time_s": 6.06 } }
message topic= tbd/machine/ack
message qos= 0
message retain flag= 0
message received  { "message_type": "ack", "transport_version": "1.0", "command_id": 1234, "session_id": "83386d73-21d1-49bd-9b73-3ecdfbc2b819", "machine_id": "b3872169-a77f-48a1-abd9-f4073b319ab9", "status": "ok", "status_code": 200, "timestamp": 1646508611, "payload": { "flow_rate_ul_per_s": 1.111, "volume_ul": 22.2 } }
message topic= tbd/machine/ack
message qos= 0
message retain flag= 0
message received  { "message_type": "ack", "transport_version": "1.0", "command_id": 1234, "session_id": "83386d73-21d1-49bd-9b73-3ecdfbc2b819", "machine_id": "b3872169-a77f-48a1-abd9-f4073b319ab9", "status": "ok", "status_code": 200, "timestamp": 1646508612, "payload": { "volume_ul": 13.0, "time_s": 4.04 } }
message topic= tbd/machine/ack
message qos= 0
message retain flag= 0
message received  { "message_type": "ack", "transport_version": "1.0", "command_id": 1234, "session_id": "83386d73-21d1-49bd-9b73-3ecdfbc2b819", "machine_id": "b3872169-a77f-48a1-abd9-f4073b319ab9", "status": "ok", "status_code": 200, "timestamp": 1646508613, "payload": { "flow_rate_ul_per_s": 8.890, "time_s": 0.888 } }
message topic= tbd/machine/ack
message qos= 0
message retain flag= 0
message received  { "message_type": "ack", "transport_version": "1.0", "command_id": 1234, "session_id": "83386d73-21d1-49bd-9b73-3ecdfbc2b819", "machine_id": "b3872169-a77f-48a1-abd9-f4073b319ab9", "status": "ok", "status_code": 200, "timestamp": 1646508614, "payload": { "flow_rate_ul_per_s": 3.456, "volume_ul": 1.23 } }
message topic= tbd/machine/ack
message qos= 0
message retain flag= 0
message received  { "message_type": "ack", "transport_version": "1.0", "command_id": 1234, "session_id": "83386d73-21d1-49bd-9b73-3ecdfbc2b819", "machine_id": "b3872169-a77f-48a1-abd9-f4073b319ab9", "status": "ok", "status_code": 200, "timestamp": 1646508615, "payload": { "volume_ul": 26.0, "time_s": 9.0 } }
message topic= tbd/machine/ack
message qos= 0
message retain flag= 0
message received  { "message_type": "ack", "transport_version": "1.0", "command_id": 1234, "session_id": "83386d73-21d1-49bd-9b73-3ecdfbc2b819", "machine_id": "b3872169-a77f-48a1-abd9-f4073b319ab9", "status": "ok", "status_code": 200, "timestamp": 1646508616, "payload": { "flow_rate_ul_per_s": 131.0, "time_s": 0.131 } }
message topic= tbd/machine/ack
message qos= 0
message retain flag= 0
message received  { "message_type": "ack", "transport_version": "1.0", "command_id": 1234, "session_id": "83386d73-21d1-49bd-9b73-3ecdfbc2b819", "machine_id": "b3872169-a77f-48a1-abd9-f4073b319ab9", "status": "ok", "status_code": 200, "timestamp": 1646508617, "payload": { "flow_rate_ul_per_s": 2.424, "volume_ul": 4.242 } }
message topic= tbd/machine/ack
message qos= 0
message retain flag= 0
message received  { "message_type": "ack", "transport_version": "1.0", "command_id": 1234, "session_id": "83386d73-21d1-49bd-9b73-3ecdfbc2b819", "machine_id": "b3872169-a77f-48a1-abd9-f4073b319ab9", "status": "ok", "status_code": 200, "timestamp": 1646508618, "payload": { "volume_ul": 5.353, "time_s": 3.535 } }
message topic= tbd/machine/ack
message qos= 0
message retain flag= 0
message received  { "message_type": "ack", "transport_version": "1.0", "command_id": 1234, "session_id": "83386d73-21d1-49bd-9b73-3ecdfbc2b819", "machine_id": "b3872169-a77f-48a1-abd9-f4073b319ab9", "status": "ok", "status_code": 200, "timestamp": 1646508619, "payload": { "flow_rate_ul_per_s": 25.25, "time_s": 5.252 } }
message topic= tbd/machine/ack
message qos= 0
message retain flag= 0
message received  { "message_type": "ack", "transport_version": "1.0", "command_id": 1234, "session_id": "83386d73-21d1-49bd-9b73-3ecdfbc2b819", "machine_id": "b3872169-a77f-48a1-abd9-f4073b319ab9", "status": "ok", "status_code": 200, "timestamp": 1646508621, "payload": { "flow_rate_ul_per_s": 3.737, "volume_ul": 7.373 } }
message topic= tbd/machine/ack
message qos= 0
message retain flag= 0
message received  { "message_type": "ack", "transport_version": "1.0", "command_id": 1234, "session_id": "83386d73-21d1-49bd-9b73-3ecdfbc2b819", "machine_id": "b3872169-a77f-48a1-abd9-f4073b319ab9", "status": "ok", "status_code": 200, "timestamp": 1646508622, "payload": { "volume_ul": 4.848, "time_s": 8.484 } }
message topic= tbd/machine/ack
message qos= 0
message retain flag= 0
message received  { "message_type": "ack", "transport_version": "1.0", "command_id": 1234, "session_id": "83386d73-21d1-49bd-9b73-3ecdfbc2b819", "machine_id": "b3872169-a77f-48a1-abd9-f4073b319ab9", "status": "ok", "status_code": 200, "timestamp": 1646508623, "payload": { "is_turn_on": true } }
message topic= tbd/machine/ack
message qos= 0
message retain flag= 0
message received  { "message_type": "ack", "transport_version": "1.0", "command_id": 1234, "session_id": "83386d73-21d1-49bd-9b73-3ecdfbc2b819", "machine_id": "b3872169-a77f-48a1-abd9-f4073b319ab9", "status": "ok", "status_code": 200, "timestamp": 1646508624, "payload": { } }
message topic= tbd/machine/ack
message qos= 0
message retain flag= 0
message received  { "message_type": "ack", "transport_version": "1.0", "command_id": 1234, "session_id": "83386d73-21d1-49bd-9b73-3ecdfbc2b819", "machine_id": "b3872169-a77f-48a1-abd9-f4073b319ab9", "status": "ok", "status_code": 200, "timestamp": 1646508625, "payload": { "filter_index": 0, "is_turn_on": true } }
message topic= tbd/machine/ack
message qos= 0
message retain flag= 0
message received  { "message_type": "ack", "transport_version": "1.0", "command_id": 1234, "session_id": "83386d73-21d1-49bd-9b73-3ecdfbc2b819", "machine_id": "b3872169-a77f-48a1-abd9-f4073b319ab9", "status": "ok", "status_code": 200, "timestamp": 1646508626, "payload": { "filter_index": 1 } }
message topic= tbd/machine/ack
message qos= 0
message retain flag= 0
message received  { "message_type": "ack", "transport_version": "1.0", "command_id": 1234, "session_id": "83386d73-21d1-49bd-9b73-3ecdfbc2b819", "machine_id": "b3872169-a77f-48a1-abd9-f4073b319ab9", "status": "ok", "status_code": 200, "timestamp": 1646508627, "payload": { "focus_nm": 35753 } }
message topic= tbd/machine/ack
message qos= 0
message retain flag= 0
message received  { "message_type": "ack", "transport_version": "1.0", "command_id": 1234, "session_id": "83386d73-21d1-49bd-9b73-3ecdfbc2b819", "machine_id": "b3872169-a77f-48a1-abd9-f4073b319ab9", "status": "ok", "status_code": 200, "timestamp": 1646508628, "payload": { "focus_offset_nm": 35.753 } }
message topic= tbd/machine/ack
message qos= 0
message retain flag= 0
message received  { "message_type": "ack", "transport_version": "1.0", "command_id": 1234, "session_id": "83386d73-21d1-49bd-9b73-3ecdfbc2b819", "machine_id": "b3872169-a77f-48a1-abd9-f4073b319ab9", "status": "ok", "status_code": 200, "timestamp": 1646508629, "payload": { } }
message topic= tbd/machine/ack
message qos= 0
message retain flag= 0
message received  { "message_type": "ack", "transport_version": "1.0", "command_id": 1234, "session_id": "83386d73-21d1-49bd-9b73-3ecdfbc2b819", "machine_id": "b3872169-a77f-48a1-abd9-f4073b319ab9", "status": "ok", "status_code": 200, "timestamp": 1646508630, "payload": { } }
message topic= tbd/machine/ack
message qos= 0
message retain flag= 0
message received  { "message_type": "ack", "transport_version": "1.0", "command_id": 1234, "session_id": "83386d73-21d1-49bd-9b73-3ecdfbc2b819", "machine_id": "b3872169-a77f-48a1-abd9-f4073b319ab9", "status": "ok", "status_code": 200, "timestamp": 1646508631, "payload": { "requesting_client_guid": "83386d73-21d1-49bd-9b73-3ecdfbc2b819" } }
message topic= tbd/machine/ack
message qos= 0
message retain flag= 0



