message received  { "message_type": "ack", "transport_version": "1.0", "command_id": 1234, "session_id": "83386d73-21d1-49bd-9b73-3ecdfbc2b819", "machine_id": "b3872169-a77f-48a1-abd9-f4073b319ab9", "status": "ok", "status_code": 200, "timestamp": 1646509881, "payload": { "requesting_client_guid": "83386d73-21d1-49bd-9b73-3ecdfbc2b819" } }
message topic= tbd/machine/ack
message qos= 0
message retain flag= 0
message received  { "message_type": "ack", "transport_version": "1.0", "command_id": 1234, "session_id": "83386d73-21d1-49bd-9b73-3ecdfbc2b819", "machine_id": "b3872169-a77f-48a1-abd9-f4073b319ab9", "status": "ok", "status_code": 200, "timestamp": 1646509882, "payload": { } }
message topic= tbd/machine/ack
message qos= 0
message retain flag= 0
message received  { "message_type": "ack", "transport_version": "1.0", "command_id": 1234, "session_id": "83386d73-21d1-49bd-9b73-3ecdfbc2b819", "machine_id": "b3872169-a77f-48a1-abd9-f4073b319ab9", "status": "ok", "status_code": 200, "timestamp": 1646509883, "payload": { } }
message topic= tbd/machine/ack
message qos= 0
message retain flag= 0
message received  { "message_type": "ack", "transport_version": "1.0", "command_id": 1234, "session_id": "83386d73-21d1-49bd-9b73-3ecdfbc2b819", "machine_id": "b3872169-a77f-48a1-abd9-f4073b319ab9", "status": "ok", "status_code": 200, "timestamp": 1646509884, "payload": { } }
message topic= tbd/machine/ack
message qos= 0
message retain flag= 0
message received  { "message_type": "ack", "transport_version": "1.0", "command_id": 1234, "session_id": "83386d73-21d1-49bd-9b73-3ecdfbc2b819", "machine_id": "b3872169-a77f-48a1-abd9-f4073b319ab9", "status": "ok", "status_code": 200, "timestamp": 1646509885, "payload": { } }
message topic= tbd/machine/ack
message qos= 0
message retain flag= 0
message received  { "message_type": "ack", "transport_version": "1.0", "command_id": 1234, "session_id": "83386d73-21d1-49bd-9b73-3ecdfbc2b819", "machine_id": "b3872169-a77f-48a1-abd9-f4073b319ab9", "status": "ok", "status_code": 200, "timestamp": 1646509886, "payload": { } }
message topic= tbd/machine/ack
message qos= 0
message retain flag= 0
message received  { "message_type": "ack", "transport_version": "1.0", "command_id": 1234, "session_id": "83386d73-21d1-49bd-9b73-3ecdfbc2b819", "machine_id": "b3872169-a77f-48a1-abd9-f4073b319ab9", "status": "ok", "status_code": 200, "timestamp": 1646509887, "payload": { } }
message topic= tbd/machine/ack
message qos= 0
message retain flag= 0
message received  { "message_type": "ack", "transport_version": "1.0", "command_id": 1234, "session_id": "83386d73-21d1-49bd-9b73-3ecdfbc2b819", "machine_id": "b3872169-a77f-48a1-abd9-f4073b319ab9", "status": "ok", "status_code": 200, "timestamp": 1646509888, "payload": { } }
message topic= tbd/machine/ack
message qos= 0
message retain flag= 0
message received  { "message_type": "ack", "transport_version": "1.0", "command_id": 1234, "session_id": "83386d73-21d1-49bd-9b73-3ecdfbc2b819", "machine_id": "b3872169-a77f-48a1-abd9-f4073b319ab9", "status": "ok", "status_code": 200, "timestamp": 1646509889, "payload": { } }
message topic= tbd/machine/ack
message qos= 0
message retain flag= 0
message received  { "message_type": "ack", "transport_version": "1.0", "command_id": 1234, "session_id": "83386d73-21d1-49bd-9b73-3ecdfbc2b819", "machine_id": "b3872169-a77f-48a1-abd9-f4073b319ab9", "status": "ok", "status_code": 200, "timestamp": 1646509890, "payload": { } }
message topic= tbd/machine/ack
message qos= 0
message retain flag= 0
message received  { "message_type": "ack", "transport_version": "1.0", "command_id": 1234, "session_id": "83386d73-21d1-49bd-9b73-3ecdfbc2b819", "machine_id": "b3872169-a77f-48a1-abd9-f4073b319ab9", "status": "ok", "status_code": 200, "timestamp": 1646509891, "payload": { "requesting_client_guid": "83386d73-21d1-49bd-9b73-3ecdfbc2b819" } }
message topic= tbd/machine/ack
message qos= 0
message retain flag= 0



